\relax 
\citation{badrinarayanan}
\citation{badrinarayanan}
\citation{delmerico}
\citation{ramadevi}
\citation{wu1,deepa}
\citation{jena}
\citation{cui,badea,tanwar}
\citation{schmidhuber,haridas}
\citation{krizhevsk,simonyan,szegedy,zeiler}
\citation{krizhevsk,simonyan,szegedy,zeiler,kaiming,badrinarayanan}
\citation{pouyanfar,aarthi}
\citation{krizhevsk}
\citation{simonyan}
\citation{szegedy}
\citation{shelhamer}
\citation{shelhamer}
\citation{badrinarayanan}
\citation{simonyan}
\citation{tajbakhsh}
\@writefile{toc}{\contentsline {section}{\numberline {I}Introduction}{1}}
\newlabel{section:Intro}{{I}{1}}
\@writefile{toc}{\contentsline {subsection}{\numberline {\unhbox \voidb@x \hbox {I-A}}Image Segmentation using CNNs}{1}}
\newlabel{segcnn}{{\unhbox \voidb@x \hbox {I-A}}{1}}
\citation{badrinarayanan}
\citation{tayebeh2}
\citation{badrinarayanan}
\citation{simonyan}
\@writefile{toc}{\contentsline {section}{\numberline {II}Proposed CNNs}{2}}
\newlabel{propseg}{{II}{2}}
\@writefile{lof}{\contentsline {figure}{\numberline {1}{\ignorespaces Proposed network for semantic segmentation.\relax }}{2}}
\providecommand*\caption@xref[2]{\@setref\relax\@undefined{#1}}
\newlabel{fig:propnet}{{1}{2}}
\@writefile{lof}{\contentsline {figure}{\numberline {2}{\ignorespaces Proposed residual network for semantic segmentation.\relax }}{2}}
\newlabel{fig:propnet2}{{2}{2}}
\citation{texture}
\citation{texture}
\citation{badrinarayanan}
\citation{adam}
\@writefile{toc}{\contentsline {section}{\numberline {III}Data Set-up for Overlapped Image Segmentation}{3}}
\newlabel{setup1}{{III}{3}}
\newlabel{eq:ptrn1}{{1}{3}}
\newlabel{eq:vrblmtx2}{{2}{3}}
\@writefile{lof}{\contentsline {figure}{\numberline {3}{\ignorespaces one synthetic image for each dataset. Left: first dataset, middle: second dataset, right: third dataset.\relax }}{3}}
\newlabel{fig:database1}{{3}{3}}
\newlabel{eq:blend1}{{4}{3}}
\newlabel{eq:blend2}{{5}{3}}
\newlabel{eq:blend3}{{6}{3}}
\newlabel{eq:blend4}{{7}{3}}
\newlabel{eq:blend5}{{8}{3}}
\@writefile{toc}{\contentsline {section}{\numberline {IV}Results}{3}}
\newlabel{res}{{IV}{3}}
\citation{badrinarayanan}
\citation{badrinarayanan}
\bibstyle{plain}
\bibdata{refs}
\bibcite{texture}{1}
\@writefile{lof}{\contentsline {figure}{\numberline {4}{\ignorespaces Results for the proposed network on the second dataset. Top: segmentation results, middle: ground truth segmentation, bottom: original mixture and sources.\relax }}{4}}
\newlabel{fig:datares1}{{4}{4}}
\@writefile{lof}{\contentsline {figure}{\numberline {5}{\ignorespaces Results for the proposed network on the third dataset. Left: original mixture, middle: segmentation results, right: ground truth.\relax }}{4}}
\newlabel{fig:datares2}{{5}{4}}
\newlabel{eq:acc}{{9}{4}}
\@writefile{lot}{\contentsline {table}{\numberline {I}{\ignorespaces Segmentation accuracy.\relax }}{4}}
\newlabel{tbl:acc1}{{I}{4}}
\newlabel{eq:iou}{{10}{4}}
\@writefile{toc}{\contentsline {section}{\numberline {V}Conclusion}{4}}
\newlabel{conclution}{{V}{4}}
\@writefile{toc}{\contentsline {chapter}{Bibliography}{4}}
\bibcite{aarthi}{2}
\bibcite{badea}{3}
\bibcite{badrinarayanan}{4}
\bibcite{cui}{5}
\bibcite{deepa}{6}
\bibcite{delmerico}{7}
\bibcite{haridas}{8}
\bibcite{kaiming}{9}
\bibcite{jena}{10}
\bibcite{tanwar}{11}
\bibcite{adam}{12}
\bibcite{krizhevsk}{13}
\bibcite{tayebeh2}{14}
\bibcite{pouyanfar}{15}
\bibcite{ramadevi}{16}
\bibcite{schmidhuber}{17}
\bibcite{shelhamer}{18}
\bibcite{simonyan}{19}
\bibcite{szegedy}{20}
\bibcite{tajbakhsh}{21}
\bibcite{wu1}{22}
\bibcite{zeiler}{23}
\@writefile{toc}{\contentsline {section}{References}{5}}
